a
Beamsize 0001 : 0,2119
Beamsize 0005 : 0,2374
Beamsize 0010 : 0,2547
Beamsize 0100 : 0,2596
Beamsize 1000 : 0,2618
Steigt an, aber stagniert!
b
Beamsize 5:
8888: 11,6 0,2374
9999: 11,9 0,2321
7777: 12,0 0,2379
Nicht strikt abhängig, grunsätzlich ist aber anzunehmen das eine exponentiell höhere Perplexity ein linear kleines BLEU impliziert.
c
Beamsize 5 : 
Dev: 0,2374
Tra: 0,2800
Wie erwarted für Trainingsdaten etwas besser.
